<?xml version="1.0" encoding="UTF-8" standalone="no"?>
<svg
   viewBox="0 0 512 512"
   version="1.1"
   id="svg1"
   sodipodi:docname="s8.svg"
   inkscape:version="1.3 (0e150ed6c4, 2023-07-21)"
   xmlns:inkscape="http://www.inkscape.org/namespaces/inkscape"
   xmlns:sodipodi="http://sodipodi.sourceforge.net/DTD/sodipodi-0.dtd"
   xmlns="http://www.w3.org/2000/svg"
   xmlns:svg="http://www.w3.org/2000/svg">
  <defs
     id="defs1" />
  <sodipodi:namedview
     id="namedview1"
     pagecolor="#ffffff"
     bordercolor="#666666"
     borderopacity="1.0"
     inkscape:showpageshadow="2"
     inkscape:pageopacity="0.0"
     inkscape:pagecheckerboard="0"
     inkscape:deskcolor="#d1d1d1"
     inkscape:zoom="1.4941406"
     inkscape:cx="256"
     inkscape:cy="255.66536"
     inkscape:window-width="1876"
     inkscape:window-height="1001"
     inkscape:window-x="0"
     inkscape:window-y="0"
     inkscape:window-maximized="1"
     inkscape:current-layer="svg1" />
  <!--! Font Awesome Pro 6.4.2 by @fontawesome - https://fontawesome.com License - https://fontawesome.com/license (Commercial License) Copyright 2023 Fonticons, Inc. -->
  <path
     style="fill:#03aef1;fill-opacity:1"
     d="m 51.5,410.1 c 18.5,-5 38.8,-8.3 50.9,-10 0.4,-0.1 0.7,-0.1 1,-0.1 5.1,-0.2 9.2,4.3 8.4,9.6 -1.7,12.1 -5,32.4 -10,50.9 C 97.6,476.4 92,491 85.2,497.8 66,517 34.5,516.6 14.9,497.1 -4.7,477.6 -5.1,446.1 14.2,426.8 21,420 35.6,414.4 51.6,410.1 Z"
     id="path11" />
  <path
     style="fill:#cb0c59;fill-opacity:1"
     d="m 382.1,33.2 c -1.5,4.8 -2.9,9.6 -4.1,14.3 -4.8,18.9 -8,38.5 -9.7,50.3 -4,26.8 18.9,49.7 45.7,45.8 11.9,-1.6 31.5,-4.8 50.4,-9.7 4.7,-1.2 9.5,-2.5 14.3,-4.1 55.5,97.7 41.5,224 -41.7,307.2 -83.2,83.2 -209.5,97.2 -307.2,41.8 1.5,-4.8 2.8,-9.6 4,-14.3 4.8,-18.9 8,-38.5 9.7,-50.3 4,-26.8 -18.9,-49.7 -45.7,-45.8 -11.9,1.6 -31.5,4.8 -50.4,9.7 -4.7,1.2 -9.5,2.5 -14.3,4.1 C -22.2,284.5 -8.2,158.2 75,75 158.2,-8.3 284.5,-22.2 382.2,33.2 Z M 416.9,209 c -4.7,-11.9 -20.8,-11 -26.8,0.3 -19,35.5 -45,70.8 -77.5,103.3 -32.5,32.5 -67.8,58.5 -103.3,77.4 -11.3,6 -12.2,22.1 -0.3,26.8 57.6,22.9 125.8,11 172.3,-35.5 46.5,-46.5 58.4,-114.8 35.5,-172.3 z M 87.1,285.1 c 2,2 4.6,3.2 7.3,3.4 l 56.1,5.1 5.1,56.1 c 0.3,2.8 1.5,5.4 3.4,7.3 6.3,6.3 17.2,3.6 19.8,-4.9 l 29.7,-97.4 c 3.5,-11.6 -7.3,-22.5 -19,-19 L 92,265.3 c -8.6,2.6 -11.3,13.4 -4.9,19.8 z M 265.3,92 235.6,189.4 c -3.5,11.6 7.3,22.5 19,19 L 352,178.7 c 8.6,-2.6 11.3,-13.4 4.9,-19.8 -2,-2 -4.6,-3.2 -7.3,-3.4 l -56.1,-5.1 -5.1,-56.1 c -0.3,-2.8 -1.5,-5.4 -3.4,-7.3 -6.3,-6.3 -17.2,-3.6 -19.8,4.9 z"
     id="path10" />
  <path
     style="fill:#03aef1;fill-opacity:1"
     d="m 426.8,14.2 c 19.2,-19.2 50.7,-18.8 70.3,0.7 19.6,19.5 20,51 0.7,70.3 -6.8,6.8 -21.4,12.4 -37.4,16.7 -16.3,4.4 -34.1,7.5 -46.3,9.3 -1.6,0.2 -3.1,0.5 -4.6,0.6 -4.9,0.8 -9.1,-2.8 -9.5,-7.4 -0.1,-0.7 0,-1.4 0.1,-2.1 1.6,-11.2 4.6,-29.6 9,-47 0.3,-1.3 0.7,-2.6 1,-3.9 4.3,-15.9 9.8,-30.5 16.7,-37.4 z"
     id="path1" />
</svg>
